Portfolio optimization without leaving the tidyverse
…
wf_stocks <- tq_get(wf_stocks, from = "2000-01-01")

# Only select minimal columns
wf_stocks_minimal <- wf_stocks %>%
  select(wf_ticker, wf_name, date, adjusted)

wf_stocks_minimal

## # A tibble: 25,513 x 4
##    wf_ticker   wf_name       date adjusted
##        <chr>     <chr>     <date>    <dbl>
##  1       VTI US Stocks 2001-06-15 41.07117
##  2       VTI US Stocks 2001-06-18 40.80925
##  3       VTI US Stocks 2001-06-19 40.92361
##  4       VTI US Stocks 2001-06-20 41.35524
##  5       VTI US Stocks 2001-06-21 41.68726
##  6       VTI US Stocks 2001-06-22 41.42163
##  7       VTI US Stocks 2001-06-25 41.15535
##  8       VTI US Stocks 2001-06-26 41.04810
##  9       VTI US Stocks 2001-06-27 41.05180
## 10       VTI US Stocks 2001-06-28 41.55478
## # ... with 25,503 more rows

Exploration and visualization

Calculate returns with tidyquant

# Using tq_mutate with a group_by to calculate returns for each stock in 
# a tidy way
wf_stocks_returns <- wf_stocks_minimal %>%
  group_by(wf_ticker) %>%
  tq_mutate(adjusted, dailyReturn, col_rename = "daily_return")

wf_stocks_returns

## # A tibble: 25,513 x 5
## # Groups:   wf_ticker [9]
##    wf_ticker   wf_name       date adjusted  daily_return
##        <chr>     <chr>     <date>    <dbl>         <dbl>
##  1       VTI US Stocks 2001-06-15 41.07117  0.000000e+00
##  2       VTI US Stocks 2001-06-18 40.80925 -6.377248e-03
##  3       VTI US Stocks 2001-06-19 40.92361  2.802527e-03
##  4       VTI US Stocks 2001-06-20 41.35524  1.054719e-02
##  5       VTI US Stocks 2001-06-21 41.68726  8.028389e-03
##  6       VTI US Stocks 2001-06-22 41.42163 -6.371947e-03
##  7       VTI US Stocks 2001-06-25 41.15535 -6.428453e-03
##  8       VTI US Stocks 2001-06-26 41.04810 -2.606174e-03
##  9       VTI US Stocks 2001-06-27 41.05180  9.023561e-05
## 10       VTI US Stocks 2001-06-28 41.55478  1.225240e-02
## # ... with 25,503 more rows
…
# Function to add target return to the spec
add_return_target_constraint <- function(ret) {
  add.constraint(base_portfolio_spec, type = "return", 
                 name = "mean", return_target = ret)
}

# Add a return target constraint to each base spec, and create a list
# column out of them as a new column
frontier <- mutate(frontier,
                   portfolio_spec = map(.x = return_target, 
                                        .f = add_return_target_constraint))

frontier

## # A tibble: 1,000 x 2
##    return_target       portfolio_spec
##            <dbl>               <list>
##  1  0.0001000000 <S3: portfolio.spec>
##  2  0.0001004769 <S3: portfolio.spec>
##  3  0.0001009539 <S3: portfolio.spec>
##  4  0.0001014308 <S3: portfolio.spec>
##  5  0.0001019078 <S3: portfolio.spec>
##  6  0.0001023847 <S3: portfolio.spec>
##  7  0.0001028617 <S3: portfolio.spec>
##  8  0.0001033386 <S3: portfolio.spec>
##  9  0.0001038156 <S3: portfolio.spec>
## 10  0.0001042925 <S3: portfolio.spec>
## # ... with 990 more rows
…
# End time
proc.time() - t1

##    user  system elapsed 
##  67.044   0.721  38.070

# Unnest and assign back to frontier
frontier <- frontier_divided %>%
  unnest() %>%
  select(-future_core)

frontier

## # A tibble: 1,000 x 3
##    return_target       portfolio_spec              optimized_model
##            <dbl>               <list>                       <list>
##  1  0.0001000000 <S3: portfolio.spec> <S3: optimize.portfolio.ROI>
##  2  0.0001004769 <S3: portfolio.spec> <S3: optimize.portfolio.ROI>
##  3  0.0001009539 <S3: portfolio.spec> <S3: optimize.portfolio.ROI>
##  4  0.0001014308 <S3: portfolio.spec> <S3: optimize.portfolio.ROI>
##  5  0.0001019078 <S3: portfolio.spec> <S3: optimize.portfolio.ROI>
##  6  0.0001023847 <S3: portfolio.spec> <S3: optimize.portfolio.ROI>
##  7  0.0001028617 <S3: portfolio.spec> <S3: optimize.portfolio.ROI>
##  8  0.0001033386 <S3: portfolio.spec> <S3: optimize.portfolio.ROI>
##  9  0.0001038156 <S3: portfolio.spec> <S3: optimize.portfolio.ROI>
## 10  0.0001042925 <S3: portfolio.spec> <S3: optimize.portfolio.ROI>
## # ... with 990 more rows
…
